{
	"info": {
		"_postman_id": "afc5fb2f-e1a9-4711-bb88-42600f8bfc02",
		"name": "Capstone",
		"schema": "https://schema.getpostman.com/json/collection/v2.1.0/collection.json",
		"_exporter_id": "25500989",
		"_collection_link": "https://www.postman.com/aviation-architect-24485145/workspace/cit/collection/25500989-afc5fb2f-e1a9-4711-bb88-42600f8bfc02?action=share&creator=25500989&source=collection_link"
	},
	"item": [
		{
			"name": "Create user",
			"request": {
				"method": "POST",
				"header": [],
				"body": {
					"mode": "raw",
					"raw": "{\r\n    \"username\": \"user2\",\r\n    \"password\": \"123\"\r\n}",
					"options": {
						"raw": {
							"language": "json"
						}
					}
				},
				"url": {
					"raw": "localhost:8080/users/register",
					"host": [
						"localhost"
					],
					"port": "8080",
					"path": [
						"users",
						"register"
					]
				}
			},
			"response": []
		},
		{
			"name": "Get user",
			"request": {
				"method": "GET",
				"header": [
					{
						"key": "Authorization",
						"value": "eyJhbGciOiJIUzUxMiJ9.eyJzdWIiOiJ1c2VyMiIsImV4cCI6MTY4MjY3MzcwNywidXNlciI6MywiaWF0IjoxNjgyNjU1NzA3fQ.nbKVRE24glM1dxmn9kMALnLesmIOOy0OMXQrTHiMs4lFctBINLaeCcYlMgwyiC6_IWJ0ClGC77KzptNChTHtaQ",
						"type": "text"
					}
				],
				"url": {
					"raw": "localhost:8080/users",
					"host": [
						"localhost"
					],
					"port": "8080",
					"path": [
						"users"
					]
				}
			},
			"response": []
		},
		{
			"name": "Create Course",
			"request": {
				"method": "POST",
				"header": [
					{
						"key": "Authorization",
						"value": "eyJhbGciOiJIUzUxMiJ9.eyJzdWIiOiJ1c2VyMiIsImV4cCI6MTY4MjY3MzcwNywidXNlciI6MywiaWF0IjoxNjgyNjU1NzA3fQ.nbKVRE24glM1dxmn9kMALnLesmIOOy0OMXQrTHiMs4lFctBINLaeCcYlMgwyiC6_IWJ0ClGC77KzptNChTHtaQ",
						"type": "text"
					}
				],
				"body": {
					"mode": "raw",
					"raw": "{\r\n    \"name\": \"course3\",\r\n    \"description\": \"sample description of course2\",\r\n    \"price\": 700.00\r\n}",
					"options": {
						"raw": {
							"language": "json"
						}
					}
				},
				"url": {
					"raw": "localhost:8080/courses",
					"host": [
						"localhost"
					],
					"port": "8080",
					"path": [
						"courses"
					]
				}
			},
			"response": []
		},
		{
			"name": "Get Course",
			"request": {
				"method": "GET",
				"header": [
					{
						"key": "Authorization",
						"value": "eyJhbGciOiJIUzUxMiJ9.eyJzdWIiOiJ1c2VyMiIsImV4cCI6MTY4MjY3MzcwNywidXNlciI6MywiaWF0IjoxNjgyNjU1NzA3fQ.nbKVRE24glM1dxmn9kMALnLesmIOOy0OMXQrTHiMs4lFctBINLaeCcYlMgwyiC6_IWJ0ClGC77KzptNChTHtaQ",
						"type": "text"
					}
				],
				"url": {
					"raw": "localhost:8080/courses",
					"host": [
						"localhost"
					],
					"port": "8080",
					"path": [
						"courses"
					]
				}
			},
			"response": []
		},
		{
			"name": "Authenticate User",
			"request": {
				"method": "POST",
				"header": [],
				"body": {
					"mode": "raw",
					"raw": "{\r\n    \"username\": \"user2\",\r\n    \"password\": \"123\"\r\n}",
					"options": {
						"raw": {
							"language": "json"
						}
					}
				},
				"url": {
					"raw": "localhost:8080/authenticate",
					"host": [
						"localhost"
					],
					"port": "8080",
					"path": [
						"authenticate"
					]
				}
			},
			"response": []
		},
		{
			"name": "Update Course",
			"request": {
				"method": "PUT",
				"header": [
					{
						"key": "Authorization",
						"value": "eyJhbGciOiJIUzUxMiJ9.eyJzdWIiOiJ1c2VyMiIsImV4cCI6MTY4MjY3MzcwNywidXNlciI6MywiaWF0IjoxNjgyNjU1NzA3fQ.nbKVRE24glM1dxmn9kMALnLesmIOOy0OMXQrTHiMs4lFctBINLaeCcYlMgwyiC6_IWJ0ClGC77KzptNChTHtaQ",
						"type": "text"
					}
				],
				"body": {
					"mode": "raw",
					"raw": "{\r\n        \"id\": 4,\r\n        \"name\": \"course3\",\r\n        \"description\": \"sample description of course3\",\r\n        \"price\": 700.0\r\n    }",
					"options": {
						"raw": {
							"language": "json"
						}
					}
				},
				"url": {
					"raw": "localhost:8080/courses/4",
					"host": [
						"localhost"
					],
					"port": "8080",
					"path": [
						"courses",
						"4"
					]
				}
			},
			"response": []
		}
	]
}